^D:\DOCUMENTS\GITHUB\GRAPHICS\CSCI441-SPRING2018\PROGRAMS\PROGRAM3\MAIN.CPP
C:\WINDOWS\GLOBALIZATION\SORTING\SORTDEFAULT.NLS
C:\PROGRAM FILES (X86)\MICROSOFT VISUAL STUDIO\2017\COMMUNITY\VC\TOOLS\MSVC\14.12.25827\BIN\HOSTX86\X86\1033\CLUI.DLL
C:\PROGRAM FILES (X86)\MICROSOFT VISUAL STUDIO\2017\COMMUNITY\VC\TOOLS\MSVC\14.12.25827\BIN\HOSTX86\X86\MSPDBSRV.EXE
C:\WINDOWS\SYSTEM32\TZRES.DLL
C:\PROGRAM FILES (X86)\MICROSOFT VISUAL STUDIO\2017\COMMUNITY\VC\TOOLS\MSVC\14.12.25827\INCLUDE\IOSTREAM
C:\PROGRAM FILES (X86)\MICROSOFT VISUAL STUDIO\2017\COMMUNITY\VC\TOOLS\MSVC\14.12.25827\INCLUDE\ISTREAM
C:\PROGRAM FILES (X86)\MICROSOFT VISUAL STUDIO\2017\COMMUNITY\VC\TOOLS\MSVC\14.12.25827\INCLUDE\OSTREAM
C:\PROGRAM FILES (X86)\MICROSOFT VISUAL STUDIO\2017\COMMUNITY\VC\TOOLS\MSVC\14.12.25827\INCLUDE\IOS
C:\PROGRAM FILES (X86)\MICROSOFT VISUAL STUDIO\2017\COMMUNITY\VC\TOOLS\MSVC\14.12.25827\INCLUDE\XLOCNUM
C:\PROGRAM FILES (X86)\MICROSOFT VISUAL STUDIO\2017\COMMUNITY\VC\TOOLS\MSVC\14.12.25827\INCLUDE\CLIMITS
C:\PROGRAM FILES (X86)\MICROSOFT VISUAL STUDIO\2017\COMMUNITY\VC\TOOLS\MSVC\14.12.25827\INCLUDE\YVALS.H
C:\PROGRAM FILES (X86)\MICROSOFT VISUAL STUDIO\2017\COMMUNITY\VC\TOOLS\MSVC\14.12.25827\INCLUDE\XKEYCHECK.H
C:\PROGRAM FILES (X86)\MICROSOFT VISUAL STUDIO\2017\COMMUNITY\VC\TOOLS\MSVC\14.12.25827\INCLUDE\CRTDEFS.H
C:\PROGRAM FILES (X86)\MICROSOFT VISUAL STUDIO\2017\COMMUNITY\VC\TOOLS\MSVC\14.12.25827\INCLUDE\VCRUNTIME.H
C:\PROGRAM FILES (X86)\MICROSOFT VISUAL STUDIO\2017\COMMUNITY\VC\TOOLS\MSVC\14.12.25827\INCLUDE\SAL.H
C:\PROGRAM FILES (X86)\MICROSOFT VISUAL STUDIO\2017\COMMUNITY\VC\TOOLS\MSVC\14.12.25827\INCLUDE\CONCURRENCYSAL.H
C:\PROGRAM FILES (X86)\MICROSOFT VISUAL STUDIO\2017\COMMUNITY\VC\TOOLS\MSVC\14.12.25827\INCLUDE\VADEFS.H
C:\PROGRAM FILES (X86)\WINDOWS KITS\10\INCLUDE\10.0.16299.0\UCRT\CORECRT.H
C:\PROGRAM FILES (X86)\MICROSOFT VISUAL STUDIO\2017\COMMUNITY\VC\TOOLS\MSVC\14.12.25827\INCLUDE\USE_ANSI.H
C:\PROGRAM FILES (X86)\MICROSOFT VISUAL STUDIO\2017\COMMUNITY\VC\TOOLS\MSVC\14.12.25827\INCLUDE\LIMITS.H
C:\PROGRAM FILES (X86)\MICROSOFT VISUAL STUDIO\2017\COMMUNITY\VC\TOOLS\MSVC\14.12.25827\INCLUDE\CMATH
C:\PROGRAM FILES (X86)\MICROSOFT VISUAL STUDIO\2017\COMMUNITY\VC\TOOLS\MSVC\14.12.25827\INCLUDE\CSTDLIB
C:\PROGRAM FILES (X86)\WINDOWS KITS\10\INCLUDE\10.0.16299.0\UCRT\STDLIB.H
C:\PROGRAM FILES (X86)\WINDOWS KITS\10\INCLUDE\10.0.16299.0\UCRT\CORECRT_MALLOC.H
C:\PROGRAM FILES (X86)\WINDOWS KITS\10\INCLUDE\10.0.16299.0\UCRT\CORECRT_SEARCH.H
C:\PROGRAM FILES (X86)\WINDOWS KITS\10\INCLUDE\10.0.16299.0\UCRT\STDDEF.H
C:\PROGRAM FILES (X86)\WINDOWS KITS\10\INCLUDE\10.0.16299.0\UCRT\CORECRT_WSTDLIB.H
C:\PROGRAM FILES (X86)\WINDOWS KITS\10\INCLUDE\10.0.16299.0\UCRT\MATH.H
C:\PROGRAM FILES (X86)\WINDOWS KITS\10\INCLUDE\10.0.16299.0\UCRT\CORECRT_MATH.H
C:\PROGRAM FILES (X86)\MICROSOFT VISUAL STUDIO\2017\COMMUNITY\VC\TOOLS\MSVC\14.12.25827\INCLUDE\XTGMATH.H
C:\PROGRAM FILES (X86)\MICROSOFT VISUAL STUDIO\2017\COMMUNITY\VC\TOOLS\MSVC\14.12.25827\INCLUDE\XTR1COMMON
C:\PROGRAM FILES (X86)\MICROSOFT VISUAL STUDIO\2017\COMMUNITY\VC\TOOLS\MSVC\14.12.25827\INCLUDE\CSTDIO
C:\PROGRAM FILES (X86)\WINDOWS KITS\10\INCLUDE\10.0.16299.0\UCRT\STDIO.H
C:\PROGRAM FILES (X86)\WINDOWS KITS\10\INCLUDE\10.0.16299.0\UCRT\CORECRT_WSTDIO.H
C:\PROGRAM FILES (X86)\WINDOWS KITS\10\INCLUDE\10.0.16299.0\UCRT\CORECRT_STDIO_CONFIG.H
C:\PROGRAM FILES (X86)\MICROSOFT VISUAL STUDIO\2017\COMMUNITY\VC\TOOLS\MSVC\14.12.25827\INCLUDE\STREAMBUF
C:\PROGRAM FILES (X86)\MICROSOFT VISUAL STUDIO\2017\COMMUNITY\VC\TOOLS\MSVC\14.12.25827\INCLUDE\XIOSBASE
C:\PROGRAM FILES (X86)\MICROSOFT VISUAL STUDIO\2017\COMMUNITY\VC\TOOLS\MSVC\14.12.25827\INCLUDE\XLOCALE
C:\PROGRAM FILES (X86)\MICROSOFT VISUAL STUDIO\2017\COMMUNITY\VC\TOOLS\MSVC\14.12.25827\INCLUDE\CSTRING
C:\PROGRAM FILES (X86)\WINDOWS KITS\10\INCLUDE\10.0.16299.0\UCRT\STRING.H
C:\PROGRAM FILES (X86)\WINDOWS KITS\10\INCLUDE\10.0.16299.0\UCRT\CORECRT_MEMORY.H
C:\PROGRAM FILES (X86)\WINDOWS KITS\10\INCLUDE\10.0.16299.0\UCRT\CORECRT_MEMCPY_S.H
C:\PROGRAM FILES (X86)\WINDOWS KITS\10\INCLUDE\10.0.16299.0\UCRT\ERRNO.H
C:\PROGRAM FILES (X86)\MICROSOFT VISUAL STUDIO\2017\COMMUNITY\VC\TOOLS\MSVC\14.12.25827\INCLUDE\VCRUNTIME_STRING.H
C:\PROGRAM FILES (X86)\WINDOWS KITS\10\INCLUDE\10.0.16299.0\UCRT\CORECRT_WSTRING.H
C:\PROGRAM FILES (X86)\MICROSOFT VISUAL STUDIO\2017\COMMUNITY\VC\TOOLS\MSVC\14.12.25827\INCLUDE\STDEXCEPT
C:\PROGRAM FILES (X86)\MICROSOFT VISUAL STUDIO\2017\COMMUNITY\VC\TOOLS\MSVC\14.12.25827\INCLUDE\EXCEPTION
C:\PROGRAM FILES (X86)\MICROSOFT VISUAL STUDIO\2017\COMMUNITY\VC\TOOLS\MSVC\14.12.25827\INCLUDE\TYPE_TRAITS
C:\PROGRAM FILES (X86)\MICROSOFT VISUAL STUDIO\2017\COMMUNITY\VC\TOOLS\MSVC\14.12.25827\INCLUDE\XSTDDEF
C:\PROGRAM FILES (X86)\MICROSOFT VISUAL STUDIO\2017\COMMUNITY\VC\TOOLS\MSVC\14.12.25827\INCLUDE\CSTDDEF
C:\PROGRAM FILES (X86)\MICROSOFT VISUAL STUDIO\2017\COMMUNITY\VC\TOOLS\MSVC\14.12.25827\INCLUDE\INITIALIZER_LIST
C:\PROGRAM FILES (X86)\WINDOWS KITS\10\INCLUDE\10.0.16299.0\UCRT\MALLOC.H
C:\PROGRAM FILES (X86)\MICROSOFT VISUAL STUDIO\2017\COMMUNITY\VC\TOOLS\MSVC\14.12.25827\INCLUDE\VCRUNTIME_EXCEPTION.H
C:\PROGRAM FILES (X86)\MICROSOFT VISUAL STUDIO\2017\COMMUNITY\VC\TOOLS\MSVC\14.12.25827\INCLUDE\EH.H
C:\PROGRAM FILES (X86)\WINDOWS KITS\10\INCLUDE\10.0.16299.0\UCRT\CORECRT_TERMINATE.H
C:\PROGRAM FILES (X86)\MICROSOFT VISUAL STUDIO\2017\COMMUNITY\VC\TOOLS\MSVC\14.12.25827\INCLUDE\XSTRING
C:\PROGRAM FILES (X86)\MICROSOFT VISUAL STUDIO\2017\COMMUNITY\VC\TOOLS\MSVC\14.12.25827\INCLUDE\XMEMORY0
C:\PROGRAM FILES (X86)\MICROSOFT VISUAL STUDIO\2017\COMMUNITY\VC\TOOLS\MSVC\14.12.25827\INCLUDE\CSTDINT
C:\PROGRAM FILES (X86)\MICROSOFT VISUAL STUDIO\2017\COMMUNITY\VC\TOOLS\MSVC\14.12.25827\INCLUDE\STDINT.H
C:\PROGRAM FILES (X86)\MICROSOFT VISUAL STUDIO\2017\COMMUNITY\VC\TOOLS\MSVC\14.12.25827\INCLUDE\LIMITS
C:\PROGRAM FILES (X86)\MICROSOFT VISUAL STUDIO\2017\COMMUNITY\VC\TOOLS\MSVC\14.12.25827\INCLUDE\YMATH.H
C:\PROGRAM FILES (X86)\MICROSOFT VISUAL STUDIO\2017\COMMUNITY\VC\TOOLS\MSVC\14.12.25827\INCLUDE\CFLOAT
C:\PROGRAM FILES (X86)\WINDOWS KITS\10\INCLUDE\10.0.16299.0\UCRT\FLOAT.H
C:\PROGRAM FILES (X86)\MICROSOFT VISUAL STUDIO\2017\COMMUNITY\VC\TOOLS\MSVC\14.12.25827\INCLUDE\CWCHAR
C:\PROGRAM FILES (X86)\WINDOWS KITS\10\INCLUDE\10.0.16299.0\UCRT\WCHAR.H
C:\PROGRAM FILES (X86)\WINDOWS KITS\10\INCLUDE\10.0.16299.0\UCRT\CORECRT_WCONIO.H
C:\PROGRAM FILES (X86)\WINDOWS KITS\10\INCLUDE\10.0.16299.0\UCRT\CORECRT_WCTYPE.H
C:\PROGRAM FILES (X86)\WINDOWS KITS\10\INCLUDE\10.0.16299.0\UCRT\CORECRT_WDIRECT.H
C:\PROGRAM FILES (X86)\WINDOWS KITS\10\INCLUDE\10.0.16299.0\UCRT\CORECRT_WIO.H
C:\PROGRAM FILES (X86)\WINDOWS KITS\10\INCLUDE\10.0.16299.0\UCRT\CORECRT_SHARE.H
C:\PROGRAM FILES (X86)\WINDOWS KITS\10\INCLUDE\10.0.16299.0\UCRT\CORECRT_WPROCESS.H
C:\PROGRAM FILES (X86)\WINDOWS KITS\10\INCLUDE\10.0.16299.0\UCRT\CORECRT_WTIME.H
C:\PROGRAM FILES (X86)\WINDOWS KITS\10\INCLUDE\10.0.16299.0\UCRT\SYS\STAT.H
C:\PROGRAM FILES (X86)\WINDOWS KITS\10\INCLUDE\10.0.16299.0\UCRT\SYS\TYPES.H
C:\PROGRAM FILES (X86)\MICROSOFT VISUAL STUDIO\2017\COMMUNITY\VC\TOOLS\MSVC\14.12.25827\INCLUDE\NEW
C:\PROGRAM FILES (X86)\MICROSOFT VISUAL STUDIO\2017\COMMUNITY\VC\TOOLS\MSVC\14.12.25827\INCLUDE\VCRUNTIME_NEW.H
C:\PROGRAM FILES (X86)\MICROSOFT VISUAL STUDIO\2017\COMMUNITY\VC\TOOLS\MSVC\14.12.25827\INCLUDE\XUTILITY
C:\PROGRAM FILES (X86)\MICROSOFT VISUAL STUDIO\2017\COMMUNITY\VC\TOOLS\MSVC\14.12.25827\INCLUDE\UTILITY
C:\PROGRAM FILES (X86)\MICROSOFT VISUAL STUDIO\2017\COMMUNITY\VC\TOOLS\MSVC\14.12.25827\INCLUDE\IOSFWD
C:\PROGRAM FILES (X86)\WINDOWS KITS\10\INCLUDE\10.0.16299.0\UCRT\CRTDBG.H
C:\PROGRAM FILES (X86)\MICROSOFT VISUAL STUDIO\2017\COMMUNITY\VC\TOOLS\MSVC\14.12.25827\INCLUDE\VCRUNTIME_NEW_DEBUG.H
C:\PROGRAM FILES (X86)\MICROSOFT VISUAL STUDIO\2017\COMMUNITY\VC\TOOLS\MSVC\14.12.25827\INCLUDE\XATOMIC0.H
C:\PROGRAM FILES (X86)\MICROSOFT VISUAL STUDIO\2017\COMMUNITY\VC\TOOLS\MSVC\14.12.25827\INCLUDE\INTRIN0.H
C:\PROGRAM FILES (X86)\MICROSOFT VISUAL STUDIO\2017\COMMUNITY\VC\TOOLS\MSVC\14.12.25827\INCLUDE\TYPEINFO
C:\PROGRAM FILES (X86)\MICROSOFT VISUAL STUDIO\2017\COMMUNITY\VC\TOOLS\MSVC\14.12.25827\INCLUDE\VCRUNTIME_TYPEINFO.H
C:\PROGRAM FILES (X86)\MICROSOFT VISUAL STUDIO\2017\COMMUNITY\VC\TOOLS\MSVC\14.12.25827\INCLUDE\XLOCINFO
C:\PROGRAM FILES (X86)\MICROSOFT VISUAL STUDIO\2017\COMMUNITY\VC\TOOLS\MSVC\14.12.25827\INCLUDE\XLOCINFO.H
C:\PROGRAM FILES (X86)\WINDOWS KITS\10\INCLUDE\10.0.16299.0\UCRT\CTYPE.H
C:\PROGRAM FILES (X86)\WINDOWS KITS\10\INCLUDE\10.0.16299.0\UCRT\LOCALE.H
C:\PROGRAM FILES (X86)\MICROSOFT VISUAL STUDIO\2017\COMMUNITY\VC\TOOLS\MSVC\14.12.25827\INCLUDE\XFACET
C:\PROGRAM FILES (X86)\MICROSOFT VISUAL STUDIO\2017\COMMUNITY\VC\TOOLS\MSVC\14.12.25827\INCLUDE\SYSTEM_ERROR
C:\PROGRAM FILES (X86)\MICROSOFT VISUAL STUDIO\2017\COMMUNITY\VC\TOOLS\MSVC\14.12.25827\INCLUDE\CERRNO
C:\PROGRAM FILES (X86)\MICROSOFT VISUAL STUDIO\2017\COMMUNITY\VC\TOOLS\MSVC\14.12.25827\INCLUDE\XCALL_ONCE.H
C:\PROGRAM FILES (X86)\WINDOWS KITS\10\INCLUDE\10.0.16299.0\UCRT\SHARE.H
D:\DOCUMENTS\VISUAL STUDIO 2017\LIBRARIES\GLM\GLM\GLM.HPP
D:\DOCUMENTS\VISUAL STUDIO 2017\LIBRARIES\GLM\GLM\DETAIL\_FIXES.HPP
C:\PROGRAM FILES (X86)\MICROSOFT VISUAL STUDIO\2017\COMMUNITY\VC\TOOLS\MSVC\14.12.25827\INCLUDE\CASSERT
C:\PROGRAM FILES (X86)\WINDOWS KITS\10\INCLUDE\10.0.16299.0\UCRT\ASSERT.H
D:\DOCUMENTS\VISUAL STUDIO 2017\LIBRARIES\GLM\GLM\FWD.HPP
D:\DOCUMENTS\VISUAL STUDIO 2017\LIBRARIES\GLM\GLM\DETAIL\TYPE_INT.HPP
D:\DOCUMENTS\VISUAL STUDIO 2017\LIBRARIES\GLM\GLM\DETAIL\SETUP.HPP
D:\DOCUMENTS\VISUAL STUDIO 2017\LIBRARIES\GLM\GLM\SIMD\PLATFORM.H
C:\PROGRAM FILES (X86)\MICROSOFT VISUAL STUDIO\2017\COMMUNITY\VC\TOOLS\MSVC\14.12.25827\INCLUDE\EMMINTRIN.H
C:\PROGRAM FILES (X86)\MICROSOFT VISUAL STUDIO\2017\COMMUNITY\VC\TOOLS\MSVC\14.12.25827\INCLUDE\XMMINTRIN.H
C:\PROGRAM FILES (X86)\MICROSOFT VISUAL STUDIO\2017\COMMUNITY\VC\TOOLS\MSVC\14.12.25827\INCLUDE\MMINTRIN.H
D:\DOCUMENTS\VISUAL STUDIO 2017\LIBRARIES\GLM\GLM\DETAIL\TYPE_FLOAT.HPP
D:\DOCUMENTS\VISUAL STUDIO 2017\LIBRARIES\GLM\GLM\DETAIL\TYPE_VEC.HPP
D:\DOCUMENTS\VISUAL STUDIO 2017\LIBRARIES\GLM\GLM\DETAIL\PRECISION.HPP
D:\DOCUMENTS\VISUAL STUDIO 2017\LIBRARIES\GLM\GLM\DETAIL\TYPE_MAT.HPP
D:\DOCUMENTS\VISUAL STUDIO 2017\LIBRARIES\GLM\GLM\VEC2.HPP
D:\DOCUMENTS\VISUAL STUDIO 2017\LIBRARIES\GLM\GLM\DETAIL\TYPE_VEC2.HPP
D:\DOCUMENTS\VISUAL STUDIO 2017\LIBRARIES\GLM\GLM\DETAIL\TYPE_VEC2.INL
D:\DOCUMENTS\VISUAL STUDIO 2017\LIBRARIES\GLM\GLM\VEC3.HPP
D:\DOCUMENTS\VISUAL STUDIO 2017\LIBRARIES\GLM\GLM\DETAIL\TYPE_VEC3.HPP
D:\DOCUMENTS\VISUAL STUDIO 2017\LIBRARIES\GLM\GLM\DETAIL\TYPE_VEC3.INL
D:\DOCUMENTS\VISUAL STUDIO 2017\LIBRARIES\GLM\GLM\VEC4.HPP
D:\DOCUMENTS\VISUAL STUDIO 2017\LIBRARIES\GLM\GLM\DETAIL\TYPE_VEC4.HPP
D:\DOCUMENTS\VISUAL STUDIO 2017\LIBRARIES\GLM\GLM\DETAIL\TYPE_VEC4.INL
D:\DOCUMENTS\VISUAL STUDIO 2017\LIBRARIES\GLM\GLM\DETAIL\TYPE_VEC4_SIMD.INL
D:\DOCUMENTS\VISUAL STUDIO 2017\LIBRARIES\GLM\GLM\MAT2X2.HPP
D:\DOCUMENTS\VISUAL STUDIO 2017\LIBRARIES\GLM\GLM\DETAIL\TYPE_MAT2X2.HPP
D:\DOCUMENTS\VISUAL STUDIO 2017\LIBRARIES\GLM\GLM\DETAIL\TYPE_MAT2X2.INL
D:\DOCUMENTS\VISUAL STUDIO 2017\LIBRARIES\GLM\GLM\DETAIL\FUNC_MATRIX.HPP
D:\DOCUMENTS\VISUAL STUDIO 2017\LIBRARIES\GLM\GLM\MAT2X3.HPP
D:\DOCUMENTS\VISUAL STUDIO 2017\LIBRARIES\GLM\GLM\DETAIL\TYPE_MAT2X3.HPP
D:\DOCUMENTS\VISUAL STUDIO 2017\LIBRARIES\GLM\GLM\DETAIL\TYPE_MAT2X3.INL
D:\DOCUMENTS\VISUAL STUDIO 2017\LIBRARIES\GLM\GLM\MAT2X4.HPP
D:\DOCUMENTS\VISUAL STUDIO 2017\LIBRARIES\GLM\GLM\DETAIL\TYPE_MAT2X4.HPP
D:\DOCUMENTS\VISUAL STUDIO 2017\LIBRARIES\GLM\GLM\DETAIL\TYPE_MAT2X4.INL
D:\DOCUMENTS\VISUAL STUDIO 2017\LIBRARIES\GLM\GLM\MAT3X2.HPP
D:\DOCUMENTS\VISUAL STUDIO 2017\LIBRARIES\GLM\GLM\DETAIL\TYPE_MAT3X2.HPP
D:\DOCUMENTS\VISUAL STUDIO 2017\LIBRARIES\GLM\GLM\DETAIL\TYPE_MAT3X2.INL
D:\DOCUMENTS\VISUAL STUDIO 2017\LIBRARIES\GLM\GLM\MAT3X3.HPP
D:\DOCUMENTS\VISUAL STUDIO 2017\LIBRARIES\GLM\GLM\DETAIL\TYPE_MAT3X3.HPP
D:\DOCUMENTS\VISUAL STUDIO 2017\LIBRARIES\GLM\GLM\DETAIL\TYPE_MAT3X3.INL
D:\DOCUMENTS\VISUAL STUDIO 2017\LIBRARIES\GLM\GLM\MAT3X4.HPP
D:\DOCUMENTS\VISUAL STUDIO 2017\LIBRARIES\GLM\GLM\DETAIL\TYPE_MAT3X4.HPP
D:\DOCUMENTS\VISUAL STUDIO 2017\LIBRARIES\GLM\GLM\DETAIL\TYPE_MAT3X4.INL
D:\DOCUMENTS\VISUAL STUDIO 2017\LIBRARIES\GLM\GLM\MAT4X2.HPP
D:\DOCUMENTS\VISUAL STUDIO 2017\LIBRARIES\GLM\GLM\DETAIL\TYPE_MAT4X2.HPP
D:\DOCUMENTS\VISUAL STUDIO 2017\LIBRARIES\GLM\GLM\DETAIL\TYPE_MAT4X2.INL
D:\DOCUMENTS\VISUAL STUDIO 2017\LIBRARIES\GLM\GLM\MAT4X3.HPP
D:\DOCUMENTS\VISUAL STUDIO 2017\LIBRARIES\GLM\GLM\DETAIL\TYPE_MAT4X3.HPP
D:\DOCUMENTS\VISUAL STUDIO 2017\LIBRARIES\GLM\GLM\DETAIL\TYPE_MAT4X3.INL
D:\DOCUMENTS\VISUAL STUDIO 2017\LIBRARIES\GLM\GLM\MAT4X4.HPP
D:\DOCUMENTS\VISUAL STUDIO 2017\LIBRARIES\GLM\GLM\DETAIL\TYPE_MAT4X4.HPP
D:\DOCUMENTS\VISUAL STUDIO 2017\LIBRARIES\GLM\GLM\DETAIL\TYPE_MAT4X4.INL
D:\DOCUMENTS\VISUAL STUDIO 2017\LIBRARIES\GLM\GLM\DETAIL\TYPE_MAT4X4_SIMD.INL
D:\DOCUMENTS\VISUAL STUDIO 2017\LIBRARIES\GLM\GLM\DETAIL\FUNC_MATRIX.INL
D:\DOCUMENTS\VISUAL STUDIO 2017\LIBRARIES\GLM\GLM\GEOMETRIC.HPP
D:\DOCUMENTS\VISUAL STUDIO 2017\LIBRARIES\GLM\GLM\DETAIL\FUNC_GEOMETRIC.HPP
D:\DOCUMENTS\VISUAL STUDIO 2017\LIBRARIES\GLM\GLM\DETAIL\FUNC_GEOMETRIC.INL
D:\DOCUMENTS\VISUAL STUDIO 2017\LIBRARIES\GLM\GLM\DETAIL\FUNC_EXPONENTIAL.HPP
D:\DOCUMENTS\VISUAL STUDIO 2017\LIBRARIES\GLM\GLM\DETAIL\TYPE_VEC1.HPP
D:\DOCUMENTS\VISUAL STUDIO 2017\LIBRARIES\GLM\GLM\DETAIL\TYPE_VEC1.INL
D:\DOCUMENTS\VISUAL STUDIO 2017\LIBRARIES\GLM\GLM\DETAIL\FUNC_EXPONENTIAL.INL
D:\DOCUMENTS\VISUAL STUDIO 2017\LIBRARIES\GLM\GLM\DETAIL\FUNC_VECTOR_RELATIONAL.HPP
D:\DOCUMENTS\VISUAL STUDIO 2017\LIBRARIES\GLM\GLM\DETAIL\FUNC_VECTOR_RELATIONAL.INL
D:\DOCUMENTS\VISUAL STUDIO 2017\LIBRARIES\GLM\GLM\DETAIL\FUNC_VECTOR_RELATIONAL_SIMD.INL
D:\DOCUMENTS\VISUAL STUDIO 2017\LIBRARIES\GLM\GLM\DETAIL\_VECTORIZE.HPP
D:\DOCUMENTS\VISUAL STUDIO 2017\LIBRARIES\GLM\GLM\DETAIL\FUNC_EXPONENTIAL_SIMD.INL
D:\DOCUMENTS\VISUAL STUDIO 2017\LIBRARIES\GLM\GLM\SIMD\EXPONENTIAL.H
D:\DOCUMENTS\VISUAL STUDIO 2017\LIBRARIES\GLM\GLM\DETAIL\FUNC_COMMON.HPP
D:\DOCUMENTS\VISUAL STUDIO 2017\LIBRARIES\GLM\GLM\DETAIL\FUNC_COMMON.INL
D:\DOCUMENTS\VISUAL STUDIO 2017\LIBRARIES\GLM\GLM\DETAIL\FUNC_COMMON_SIMD.INL
D:\DOCUMENTS\VISUAL STUDIO 2017\LIBRARIES\GLM\GLM\SIMD\COMMON.H
C:\PROGRAM FILES (X86)\MICROSOFT VISUAL STUDIO\2017\COMMUNITY\VC\TOOLS\MSVC\14.12.25827\INCLUDE\IMMINTRIN.H
C:\PROGRAM FILES (X86)\MICROSOFT VISUAL STUDIO\2017\COMMUNITY\VC\TOOLS\MSVC\14.12.25827\INCLUDE\WMMINTRIN.H
C:\PROGRAM FILES (X86)\MICROSOFT VISUAL STUDIO\2017\COMMUNITY\VC\TOOLS\MSVC\14.12.25827\INCLUDE\NMMINTRIN.H
C:\PROGRAM FILES (X86)\MICROSOFT VISUAL STUDIO\2017\COMMUNITY\VC\TOOLS\MSVC\14.12.25827\INCLUDE\SMMINTRIN.H
C:\PROGRAM FILES (X86)\MICROSOFT VISUAL STUDIO\2017\COMMUNITY\VC\TOOLS\MSVC\14.12.25827\INCLUDE\TMMINTRIN.H
C:\PROGRAM FILES (X86)\MICROSOFT VISUAL STUDIO\2017\COMMUNITY\VC\TOOLS\MSVC\14.12.25827\INCLUDE\PMMINTRIN.H
C:\PROGRAM FILES (X86)\MICROSOFT VISUAL STUDIO\2017\COMMUNITY\VC\TOOLS\MSVC\14.12.25827\INCLUDE\ZMMINTRIN.H
D:\DOCUMENTS\VISUAL STUDIO 2017\LIBRARIES\GLM\GLM\DETAIL\FUNC_GEOMETRIC_SIMD.INL
D:\DOCUMENTS\VISUAL STUDIO 2017\LIBRARIES\GLM\GLM\SIMD\GEOMETRIC.H
D:\DOCUMENTS\VISUAL STUDIO 2017\LIBRARIES\GLM\GLM\DETAIL\FUNC_MATRIX_SIMD.INL
D:\DOCUMENTS\VISUAL STUDIO 2017\LIBRARIES\GLM\GLM\SIMD\MATRIX.H
D:\DOCUMENTS\VISUAL STUDIO 2017\LIBRARIES\GLM\GLM\TRIGONOMETRIC.HPP
D:\DOCUMENTS\VISUAL STUDIO 2017\LIBRARIES\GLM\GLM\DETAIL\FUNC_TRIGONOMETRIC.HPP
D:\DOCUMENTS\VISUAL STUDIO 2017\LIBRARIES\GLM\GLM\DETAIL\FUNC_TRIGONOMETRIC.INL
D:\DOCUMENTS\VISUAL STUDIO 2017\LIBRARIES\GLM\GLM\DETAIL\FUNC_TRIGONOMETRIC_SIMD.INL
D:\DOCUMENTS\VISUAL STUDIO 2017\LIBRARIES\GLM\GLM\EXPONENTIAL.HPP
D:\DOCUMENTS\VISUAL STUDIO 2017\LIBRARIES\GLM\GLM\COMMON.HPP
D:\DOCUMENTS\VISUAL STUDIO 2017\LIBRARIES\GLM\GLM\PACKING.HPP
D:\DOCUMENTS\VISUAL STUDIO 2017\LIBRARIES\GLM\GLM\DETAIL\FUNC_PACKING.HPP
D:\DOCUMENTS\VISUAL STUDIO 2017\LIBRARIES\GLM\GLM\DETAIL\FUNC_PACKING.INL
D:\DOCUMENTS\VISUAL STUDIO 2017\LIBRARIES\GLM\GLM\DETAIL\TYPE_HALF.HPP
D:\DOCUMENTS\VISUAL STUDIO 2017\LIBRARIES\GLM\GLM\DETAIL\TYPE_HALF.INL
D:\DOCUMENTS\VISUAL STUDIO 2017\LIBRARIES\GLM\GLM\DETAIL\FUNC_PACKING_SIMD.INL
D:\DOCUMENTS\VISUAL STUDIO 2017\LIBRARIES\GLM\GLM\MATRIX.HPP
D:\DOCUMENTS\VISUAL STUDIO 2017\LIBRARIES\GLM\GLM\VECTOR_RELATIONAL.HPP
D:\DOCUMENTS\VISUAL STUDIO 2017\LIBRARIES\GLM\GLM\INTEGER.HPP
D:\DOCUMENTS\VISUAL STUDIO 2017\LIBRARIES\GLM\GLM\DETAIL\FUNC_INTEGER.HPP
D:\DOCUMENTS\VISUAL STUDIO 2017\LIBRARIES\GLM\GLM\DETAIL\FUNC_INTEGER.INL
C:\PROGRAM FILES (X86)\MICROSOFT VISUAL STUDIO\2017\COMMUNITY\VC\TOOLS\MSVC\14.12.25827\INCLUDE\INTRIN.H
C:\PROGRAM FILES (X86)\MICROSOFT VISUAL STUDIO\2017\COMMUNITY\VC\TOOLS\MSVC\14.12.25827\INCLUDE\SETJMP.H
C:\PROGRAM FILES (X86)\MICROSOFT VISUAL STUDIO\2017\COMMUNITY\VC\TOOLS\MSVC\14.12.25827\INCLUDE\AMMINTRIN.H
C:\PROGRAM FILES (X86)\MICROSOFT VISUAL STUDIO\2017\COMMUNITY\VC\TOOLS\MSVC\14.12.25827\INCLUDE\MM3DNOW.H
D:\DOCUMENTS\VISUAL STUDIO 2017\LIBRARIES\GLM\GLM\DETAIL\FUNC_INTEGER_SIMD.INL
D:\DOCUMENTS\VISUAL STUDIO 2017\LIBRARIES\GLM\GLM\SIMD\INTEGER.H
D:\DOCUMENTS\GITHUB\GRAPHICS\CSCI441-SPRING2018\PROGRAMS\PROGRAM3\BITMAP_IMAGE.HPP
C:\PROGRAM FILES (X86)\MICROSOFT VISUAL STUDIO\2017\COMMUNITY\VC\TOOLS\MSVC\14.12.25827\INCLUDE\ALGORITHM
C:\PROGRAM FILES (X86)\MICROSOFT VISUAL STUDIO\2017\COMMUNITY\VC\TOOLS\MSVC\14.12.25827\INCLUDE\XMEMORY
C:\PROGRAM FILES (X86)\MICROSOFT VISUAL STUDIO\2017\COMMUNITY\VC\TOOLS\MSVC\14.12.25827\INCLUDE\FSTREAM
C:\PROGRAM FILES (X86)\MICROSOFT VISUAL STUDIO\2017\COMMUNITY\VC\TOOLS\MSVC\14.12.25827\INCLUDE\ITERATOR
C:\PROGRAM FILES (X86)\MICROSOFT VISUAL STUDIO\2017\COMMUNITY\VC\TOOLS\MSVC\14.12.25827\INCLUDE\STRING
C:\PROGRAM FILES (X86)\MICROSOFT VISUAL STUDIO\2017\COMMUNITY\VC\TOOLS\MSVC\14.12.25827\INCLUDE\XSTRING_INSERT.H
C:\PROGRAM FILES (X86)\MICROSOFT VISUAL STUDIO\2017\COMMUNITY\VC\TOOLS\MSVC\14.12.25827\INCLUDE\VECTOR
D:\DOCUMENTS\GITHUB\GRAPHICS\CSCI441-SPRING2018\PROGRAMS\PROGRAM3\MODEL.H
D:\DOCUMENTS\GITHUB\GRAPHICS\CSCI441-SPRING2018\PROGRAMS\PROGRAM3\BADOBJLOADER.H
D:\DOCUMENTS\VISUAL STUDIO 2017\LIBRARIES\PTHREAD\PTHREAD.H
C:\PROGRAM FILES (X86)\WINDOWS KITS\10\INCLUDE\10.0.16299.0\UCRT\TIME.H
D:\DOCUMENTS\VISUAL STUDIO 2017\LIBRARIES\PTHREAD\SCHED.H
C:\PROGRAM FILES (X86)\MICROSOFT VISUAL STUDIO\2017\COMMUNITY\VC\TOOLS\MSVC\14.12.25827\INCLUDE\THREAD
C:\PROGRAM FILES (X86)\MICROSOFT VISUAL STUDIO\2017\COMMUNITY\VC\TOOLS\MSVC\14.12.25827\INCLUDE\FUNCTIONAL
C:\PROGRAM FILES (X86)\MICROSOFT VISUAL STUDIO\2017\COMMUNITY\VC\TOOLS\MSVC\14.12.25827\INCLUDE\TUPLE
C:\PROGRAM FILES (X86)\MICROSOFT VISUAL STUDIO\2017\COMMUNITY\VC\TOOLS\MSVC\14.12.25827\INCLUDE\XFUNCTIONAL
C:\PROGRAM FILES (X86)\MICROSOFT VISUAL STUDIO\2017\COMMUNITY\VC\TOOLS\MSVC\14.12.25827\INCLUDE\CHRONO
C:\PROGRAM FILES (X86)\MICROSOFT VISUAL STUDIO\2017\COMMUNITY\VC\TOOLS\MSVC\14.12.25827\INCLUDE\RATIO
C:\PROGRAM FILES (X86)\MICROSOFT VISUAL STUDIO\2017\COMMUNITY\VC\TOOLS\MSVC\14.12.25827\INCLUDE\THR\XTIMEC.H
C:\PROGRAM FILES (X86)\MICROSOFT VISUAL STUDIO\2017\COMMUNITY\VC\TOOLS\MSVC\14.12.25827\INCLUDE\THR\XTHRCOMMON.H
C:\PROGRAM FILES (X86)\MICROSOFT VISUAL STUDIO\2017\COMMUNITY\VC\TOOLS\MSVC\14.12.25827\INCLUDE\MEMORY
C:\PROGRAM FILES (X86)\MICROSOFT VISUAL STUDIO\2017\COMMUNITY\VC\TOOLS\MSVC\14.12.25827\INCLUDE\THR\XTHREAD
C:\PROGRAM FILES (X86)\MICROSOFT VISUAL STUDIO\2017\COMMUNITY\VC\TOOLS\MSVC\14.12.25827\INCLUDE\THR\XTIME
C:\PROGRAM FILES (X86)\MICROSOFT VISUAL STUDIO\2017\COMMUNITY\VC\TOOLS\MSVC\14.12.25827\INCLUDE\THR\XTHREADS.H
