^D:\DOCUMENTS\GITHUB\GRAPHICS\CSCI441-SPRING2018\PROGRAMS\PROGRAM3\VS\PROGRAM3\PROGRAM3\DEBUG\MAIN.OBJ
D:\DOCUMENTS\GITHUB\GRAPHICS\CSCI441-SPRING2018\PROGRAMS\PROGRAM3\VS\PROGRAM3\DEBUG\PROGRAM3.ILK
D:\DOCUMENTS\GITHUB\GRAPHICS\CSCI441-SPRING2018\PROGRAMS\PROGRAM3\VS\PROGRAM3\DEBUG\PROGRAM3.EXE
D:\DOCUMENTS\GITHUB\GRAPHICS\CSCI441-SPRING2018\PROGRAMS\PROGRAM3\VS\PROGRAM3\DEBUG\PROGRAM3.PDB
