Determining if the pthread_create exist failed with the following output:
Change Dir: /home/garret/Documents/Github/Graphics/csci441-spring2018/programs/program2/cmake-build-debug/CMakeFiles/CMakeTmp

Run Build Command:"/usr/bin/make" "cmTC_17af6/fast"
/usr/bin/make -f CMakeFiles/cmTC_17af6.dir/build.make CMakeFiles/cmTC_17af6.dir/build
make[1]: Entering directory '/home/garret/Documents/Github/Graphics/csci441-spring2018/programs/program2/cmake-build-debug/CMakeFiles/CMakeTmp'
Building C object CMakeFiles/cmTC_17af6.dir/CheckSymbolExists.c.o
/usr/bin/cc    -o CMakeFiles/cmTC_17af6.dir/CheckSymbolExists.c.o   -c /home/garret/Documents/Github/Graphics/csci441-spring2018/programs/program2/cmake-build-debug/CMakeFiles/CMakeTmp/CheckSymbolExists.c
Linking C executable cmTC_17af6
/home/garret/.local/share/JetBrains/Toolbox/apps/CLion/ch-0/173.4548.31/bin/cmake/bin/cmake -E cmake_link_script CMakeFiles/cmTC_17af6.dir/link.txt --verbose=1
/usr/bin/cc      -rdynamic CMakeFiles/cmTC_17af6.dir/CheckSymbolExists.c.o  -o cmTC_17af6 
CMakeFiles/cmTC_17af6.dir/CheckSymbolExists.c.o: In function `main':
CheckSymbolExists.c:(.text+0x16): undefined reference to `pthread_create'
collect2: error: ld returned 1 exit status
CMakeFiles/cmTC_17af6.dir/build.make:97: recipe for target 'cmTC_17af6' failed
make[1]: *** [cmTC_17af6] Error 1
make[1]: Leaving directory '/home/garret/Documents/Github/Graphics/csci441-spring2018/programs/program2/cmake-build-debug/CMakeFiles/CMakeTmp'
Makefile:126: recipe for target 'cmTC_17af6/fast' failed
make: *** [cmTC_17af6/fast] Error 2

File /home/garret/Documents/Github/Graphics/csci441-spring2018/programs/program2/cmake-build-debug/CMakeFiles/CMakeTmp/CheckSymbolExists.c:
/* */
#include <pthread.h>

int main(int argc, char** argv)
{
  (void)argv;
#ifndef pthread_create
  return ((int*)(&pthread_create))[argc];
#else
  (void)argc;
  return 0;
#endif
}

Determining if the function pthread_create exists in the pthreads failed with the following output:
Change Dir: /home/garret/Documents/Github/Graphics/csci441-spring2018/programs/program2/cmake-build-debug/CMakeFiles/CMakeTmp

Run Build Command:"/usr/bin/make" "cmTC_006bc/fast"
/usr/bin/make -f CMakeFiles/cmTC_006bc.dir/build.make CMakeFiles/cmTC_006bc.dir/build
make[1]: Entering directory '/home/garret/Documents/Github/Graphics/csci441-spring2018/programs/program2/cmake-build-debug/CMakeFiles/CMakeTmp'
Building C object CMakeFiles/cmTC_006bc.dir/CheckFunctionExists.c.o
/usr/bin/cc   -DCHECK_FUNCTION_EXISTS=pthread_create   -o CMakeFiles/cmTC_006bc.dir/CheckFunctionExists.c.o   -c /home/garret/.local/share/JetBrains/Toolbox/apps/CLion/ch-0/173.4548.31/bin/cmake/share/cmake-3.9/Modules/CheckFunctionExists.c
Linking C executable cmTC_006bc
/home/garret/.local/share/JetBrains/Toolbox/apps/CLion/ch-0/173.4548.31/bin/cmake/bin/cmake -E cmake_link_script CMakeFiles/cmTC_006bc.dir/link.txt --verbose=1
/usr/bin/cc  -DCHECK_FUNCTION_EXISTS=pthread_create    -rdynamic CMakeFiles/cmTC_006bc.dir/CheckFunctionExists.c.o  -o cmTC_006bc -lpthreads 
/usr/bin/ld: cannot find -lpthreads
collect2: error: ld returned 1 exit status
CMakeFiles/cmTC_006bc.dir/build.make:97: recipe for target 'cmTC_006bc' failed
make[1]: *** [cmTC_006bc] Error 1
make[1]: Leaving directory '/home/garret/Documents/Github/Graphics/csci441-spring2018/programs/program2/cmake-build-debug/CMakeFiles/CMakeTmp'
Makefile:126: recipe for target 'cmTC_006bc/fast' failed
make: *** [cmTC_006bc/fast] Error 2


